…
    data01 = read_csv("data.csv")

    ## Parsed with column specification:
    ## cols(
    ##   .default = col_character(),
    ##   Invited = col_double(),
    ##   Responded = col_double()
    ## )

    ## See spec(...) for full column specifications.

    data01<-na.omit(data01)
    data01

    ## # A tibble: 92 x 30
    ##    Course Campus Term  Section Invited Responded Mean1 Mean2 Mean3 Mean4 Mean5
    ##    <chr>  <chr>  <chr> <chr>     <dbl>     <dbl> <chr> <chr> <chr> <chr> <chr>
    ##  1 JRE42… UTSG   Fall… LEC0103      55        18 2.4   2.5   2.8   2.7   2.8  
    ##  2 JRE42… UTSG   Fall… LEC0103      54        14 3.2   3.1   3.6   3.2   3.2  
    ##  3 JRE42… UTSG   Fall… LEC0103      55        37 2.5   2.8   3.8   3     3.1  
    ##  4 JRE42… UTSG   Fall… LEC0103      53        14 2.8   3.6   3.6   3.1   3.2  
    ##  5 JRE42… UTSG   Summ… LEC0101      48        20 3.5   3.6   4     3.5   3.4  
    ##  6 JRE42… UTSG   Wint… LEC0103      52        16 2.4   2.1   2.3   2.4   2.5  
    ##  7 JRE42… UTSG   Wint… LEC0103      55        31 2.9   3.2   3.4   2.9   3    
    ##  8 JRE42… UTSG   Wint… LEC0103      46        14 3.7   4     4.3   4.1   4.1  
    ##  9 MGHB0… UTSC   Fall… LEC01        62        18 2.6   2.7   3.2   2.8   2.9  
    ## 10 MGHB0… UTSC   Fall… LEC01        52        28 2.7   2.8   2.9   2.5   2.8  
    ## # … with 82 more rows, and 19 more variables: Mean6 <chr>, Median1 <chr>,
    ## #   Median2 <chr>, Median3 <chr>, Median4 <chr>, Median5 <chr>, Median6 <chr>,
    ## #   Mode1 <chr>, Mode2 <chr>, Mode3 <chr>, Mode4 <chr>, Mode5 <chr>,
    ## #   Mode6 <chr>, StdDev1 <chr>, StdDev2 <chr>, StdDev3 <chr>, StdDev4 <chr>,
    ## #   StdDev5 <chr>, StdDev6 <chr>
…
